time,latitude,longitude,depth,mag,magType,nst,gap,dmin,rms,net,id,updated,place,type,horizontalError,depthError,magError,magNst,status,locationSource,magSource
2014-01-01T23:42:15.000Z,-29.888,-71.621,40,4,ml,,,,3.09,us,usc000mnnn,2014-03-07T00:25:54.000Z,"27km WNW of Coquimbo, Chile",earthquake,,10.1,,,reviewed,guc,guc
2014-01-01T23:32:17.530Z,-23.9576,-176.8207,219.29,4.2,mb,,136,5.358,1.38,us,usb000m2w9,2014-03-07T00:25:54.000Z,"South of the Fiji Islands",earthquake,,12.1,0.372,5,reviewed,us,us
2014-01-01T23:24:13.890Z,-6.1578,128.3539,359.16,4.2,mb,,82,3.439,1.05,us,usb000m2wa,2014-03-07T00:25:54.000Z,"269km S of Amahusu, Indonesia",earthquake,,9.6,0.305,4,reviewed,us,us
2014-01-01T23:05:16.400Z,17.7689,-95.659,120.1,4,md,,,,1.12,us,usc000mh9r,2014-03-07T00:25:54.000Z,"18km ESE of Playa Vicente, Mexico",earthquake,,6.1,,26,reviewed,unm,unm
2014-01-01T22:33:51.260Z,-13.7511,167.2381,205.98,4.6,mb,,94,8.309,0.97,us,usb000m2w8,2014-03-07T00:25:54.000Z,"36km WNW of Sola, Vanuatu",earthquake,,5.1,0.151,16,reviewed,us,us
2014-01-01T22:05:03.740Z,-45.9283,-13.4962,10,4.4,mb,,80,16.894,0.76,us,usb000m2w5,2014-03-07T00:25:54.000Z,"Southern Mid-Atlantic Ridge",earthquake,,1.9,0.203,9,reviewed,us,us
2014-01-01T21:33:40.420Z,-6.4984,130.0048,164.28,4,mb,,89,1.955,1.35,us,usb000m2w4,2014-03-07T00:25:54.000Z,"216km NW of Saumlaki, Indonesia",earthquake,,13,0.231,6,reviewed,us,us
2014-01-01T21:25:49.120Z,-3.0101,129.4565,35,4.7,mb,,62,2.79,1.46,us,usc000lvew,2014-03-07T00:25:54.000Z,"69km ENE of Amahai, Indonesia",earthquake,,2,0.082,50,reviewed,us,us
2014-01-01T21:11:33.410Z,0.9787,97.0082,16.71,4.5,mb,,160,0.652,1.3,us,usc000lven,2014-03-07T00:25:54.000Z,"180km SSE of Sinabang, Indonesia",earthquake,,2.6,0.089,40,reviewed,us,us
2014-01-01T19:17:56.090Z,4.5344,95.7415,94.56,4.3,mb,,163,1.385,0.97,us,usc000lvdi,2014-03-07T00:25:54.000Z,"61km NW of Meulaboh, Indonesia",earthquake,,8.5,0.177,11,reviewed,us,us
2014-01-01T17:43:18.610Z,20.434,145.3275,98.74,4.7,mb,,104,3.738,0.69,us,usc000lvd6,2014-03-07T00:25:54.000Z,"46km ESE of Farallon de Pajaros, Northern Mariana Islands",earthquake,,8.8,0.106,30,reviewed,us,us
2014-01-01T16:47:53.860Z,51.8989,82.0733,23.71,4.6,mb,,57,2.47,0.86,us,usc000lvcu,2014-03-07T00:25:54.000Z,"21km ESE of Pospelikha, Russia",earthquake,,4.7,0.111,29,reviewed,us,us
2014-01-01T16:14:14.380Z,-22.4184,-66.1327,240.69,4.9,mb,,71,2.576,0.73,us,usc000lvb7,2014-03-07T00:25:54.000Z,"55km NW of Abra Pampa, Argentina",earthquake,,6.1,0.082,49,reviewed,us,us
2014-01-01T16:07:36.990Z,15.9428,-98.739,15.02,4.2,mb,,214,0.738,0.14,us,usc000mh9l,2014-03-07T00:25:54.000Z,"63km S of Tecoanapa, Mexico",earthquake,,8.9,0.374,3,reviewed,us,us
2014-01-01T16:03:29.000Z,-13.8633,167.249,187,6.5,mww,,14,3.997,0.76,us,usc000lvb5,2014-03-07T00:25:55.000Z,"32km W of Sola, Vanuatu",earthquake,,1.7,,,reviewed,us,us
2014-01-01T15:28:40.450Z,6.7657,127.3952,54.45,4.3,mb,,127,1.828,1.04,us,usb000m2w2,2014-03-07T00:25:54.000Z,"106km ESE of Manay, Philippines",earthquake,,7.7,0.138,16,reviewed,us,us
2014-01-01T15:17:48.530Z,-17.4773,167.8106,7.87,4.6,mb,,164,0.551,0.59,us,usb000m2w1,2014-03-07T00:25:54.000Z,"61km WNW of Port-Vila, Vanuatu",earthquake,,10.8,0.193,9,reviewed,us,us
2014-01-01T14:39:26.570Z,36.6547,140.9389,61.76,4.9,mb,,120,2.199,0.85,us,usc000lval,2014-03-07T00:25:54.000Z,"21km ESE of Takahagi, Japan",earthquake,,5.4,0.081,52,reviewed,us,us
2014-01-01T14:23:03.600Z,-35.2981,-179.0072,54.48,4.9,mb,,52,3.13,0.84,us,usc000lva0,2014-03-07T00:25:54.000Z,"East of the North Island of New Zealand",earthquake,,4.6,0.095,44,reviewed,us,us
2014-01-01T13:54:22.990Z,-6.6316,147.6208,64.15,4,mb,,231,2.792,0.58,us,usb000m2vz,2014-03-07T00:25:54.000Z,"27km W of Finschhafen, Papua New Guinea",earthquake,,15.5,0.196,8,reviewed,us,us
2014-01-01T13:03:18.840Z,11.0273,-86.7714,47.73,4.6,mb,,196,1.823,0.69,us,usb000m2vy,2014-03-07T00:25:54.000Z,"88km SSW of Masachapa, Nicaragua",earthquake,,10,0.064,73,reviewed,us,us
2014-01-01T12:13:36.050Z,19.368,145.2333,214.87,4.1,mb,,117,2.703,0.52,us,usb000m2vw,2014-03-07T00:25:54.000Z,"80km NW of Agrihan, Northern Mariana Islands",earthquake,,10.9,0.185,10,reviewed,us,us
2014-01-01T11:24:39.050Z,-7.6919,127.9629,180.54,4.2,mb,,74,3.317,1.31,us,usb000m2vu,2014-03-07T00:25:54.000Z,"280km ENE of Dili, East Timor",earthquake,,9,0.2,7,reviewed,us,us
2014-01-01T11:18:23.020Z,1.031,126.1909,39.88,4.1,mb,,128,1.203,1.02,us,usb000m2w0,2014-03-07T00:25:54.000Z,"121km ESE of Bitung, Indonesia",earthquake,,7.8,0.151,13,reviewed,us,us
2014-01-01T11:08:41.610Z,-21.3022,-68.0824,121.27,4,mb,,103,1.514,1.21,us,usb000m2wd,2014-03-07T00:25:54.000Z,"156km NE of Calama, Chile",earthquake,,10.5,0.516,2,reviewed,us,us
2014-01-01T11:08:09.850Z,-44.4548,-82.0262,10,4.6,mb,,138,9.243,0.89,us,usc000lv8w,2014-03-07T00:25:54.000Z,"West Chile Rise",earthquake,,1.9,0.087,41,reviewed,us,us
2014-01-01T10:55:27.410Z,-56.1218,-27.6253,98.43,4.4,mb,,116,5.399,1,us,usb000m2wf,2014-03-07T00:25:54.000Z,"69km NNW of Visokoi Island, ",earthquake,,8.7,0.219,6,reviewed,us,us
2014-01-01T10:10:47.900Z,4.6918,95.1453,56.46,4,mb,,174,4.148,0.63,us,usb000m2vq,2014-03-07T00:25:54.000Z,"97km SSW of Banda Aceh, Indonesia",earthquake,,11.8,0.259,4,reviewed,us,us
2014-01-01T07:53:56.380Z,-18.4394,-177.919,582.05,4.6,mb,,84,3.893,0.94,us,usc000lv7u,2014-03-07T00:25:54.000Z,"258km NNE of Ndoi Island, Fiji",earthquake,,3.1,0.08,49,reviewed,us,us
2014-01-01T07:04:04.190Z,41.9117,137.5205,285.08,4.9,mb,,52,4.204,0.92,us,usc000lv7r,2014-03-07T00:25:54.000Z,"260km W of Kamiiso, Japan",earthquake,,4.9,0.031,346,reviewed,us,us
2014-01-01T06:17:15.340Z,-44.617,37.4119,14.74,4.3,mb,,129,17.795,0.42,us,usb000m2vm,2014-03-07T00:25:54.000Z,"256km N of Marion Island, Prince Edward Islands",earthquake,,5.5,0.2,7,reviewed,us,us
2014-01-01T06:08:33.500Z,28.58,54.314,18.3,4,mb,,,,1.41,us,usc000lv7j,2014-03-07T00:25:54.000Z,"29km SW of Darab, Iran",earthquake,,4.4,0.098,31,reviewed,teh,us
2014-01-01T05:48:53.370Z,-28.4669,-71.3698,51.28,4.5,mb,,152,1.771,0.64,us,usc000lv8x,2014-03-07T00:25:54.000Z,"60km W of Vallenar, Chile",earthquake,,8,0.204,7,reviewed,us,us
2014-01-01T04:46:28.090Z,-44.6449,-15.456,10.06,4.7,mb,,87,16.671,0.76,us,usc000lv78,2014-03-07T00:25:54.000Z,"Southern Mid-Atlantic Ridge",earthquake,,2.6,0.142,18,reviewed,us,us
2014-01-01T04:18:10.770Z,33.0833,139.4782,15.72,4.1,mb,,87,0.283,0.69,us,usb000m2vh,2014-03-07T00:25:54.000Z,"30km W of Hachijo-jima, Japan",earthquake,,2.2,0.301,5,reviewed,us,us
2014-01-01T04:18:06.610Z,3.4262,126.7562,63.39,4.1,mb,,147,2.706,0.97,us,usb000m2vg,2014-03-07T00:25:53.000Z,"233km NW of Tobelo, Indonesia",earthquake,,11.5,0.139,16,reviewed,us,us
2014-01-01T03:20:13.460Z,-6.9955,127.7639,268.18,4.1,mb,,47,3.639,0.79,us,usc000lv6s,2014-03-07T00:25:53.000Z,"297km NE of Dili, East Timor",earthquake,,7.3,0.123,20,reviewed,us,us
2014-01-01T02:57:45.730Z,-11.0957,165.2649,38.13,4.1,mb,,124,5.486,0.31,us,usb000m2vf,2014-03-07T00:25:53.000Z,"74km SW of Lata, Solomon Islands",earthquake,,10.3,0.368,3,reviewed,us,us
2014-01-01T01:26:22.990Z,19.1486,120.5772,10,4.3,mb,,88,4.131,0.79,us,usb000m2ve,2014-03-07T00:25:53.000Z,"68km NNW of Pagudpud, Philippines",earthquake,,1.9,0.111,26,reviewed,us,us
2014-01-01T01:08:27.220Z,-6.2115,152.821,40.81,4.2,mb,,141,6.443,0.8,us,usb000m2vd,2014-03-07T00:25:53.000Z,"194km S of Taron, Papua New Guinea",earthquake,,7.4,0.265,5,reviewed,us,us
2014-01-01T00:05:28.830Z,-18.4965,-175.5282,217.9,4.5,mb,,41,5.337,0.6,us,usc000lv5j,2014-03-07T00:25:53.000Z,"163km W of Neiafu, Tonga",earthquake,,5.3,0.064,80,reviewed,us,us
2014-01-01T00:01:16.610Z,19.0868,120.2389,10.07,5.1,mb,,29,3.794,0.85,us,usc000lv5e,2014-03-07T00:25:53.000Z,"76km NNW of Davila, Philippines",earthquake,,2.4,0.048,143,reviewed,us,us
